…
``` r
library(aimsir17)
d_data <- observations %>%
           dplyr::filter(complete.cases(observations)) %>%
           dplyr::group_by(station,month,day) %>%
           dplyr::summarize(MaxWdsp=max(wdsp,na.rm=TRUE),
                            DailyAverageMSL=mean(msl,na.rm=TRUE)) %>%
           dplyr::ungroup()
d_data
```

    ## # A tibble: 8,394 × 5
    ##    station month   day MaxWdsp DailyAverageMSL
    ##    <chr>   <dbl> <int>   <dbl>           <dbl>
    ##  1 ATHENRY     1     1      12           1027.
    ##  2 ATHENRY     1     2       8           1035.
    ##  3 ATHENRY     1     3       6           1032.
    ##  4 ATHENRY     1     4       4           1030.
    ##  5 ATHENRY     1     5       9           1029.
    ##  6 ATHENRY     1     6       9           1028.
    ##  7 ATHENRY     1     7       6           1032.
    ##  8 ATHENRY     1     8       9           1029.
    ##  9 ATHENRY     1     9      16           1015.
    ## 10 ATHENRY     1    10      13           1013.
    ## # ℹ 8,384 more rows
…
