…
### Choosing columns with `select()`

The function `select()` allows you to subset columns from the input
tibble using the column names. Note that `select()` will always return
all of the observations for the selected columns.

``` r
dplyr::select(mpg,manufacturer,model,year,displ,cty)
```

    ## # A tibble: 234 × 5
    ##    manufacturer model       year displ   cty
    ##    <chr>        <chr>      <int> <dbl> <int>
    ##  1 audi         a4          1999   1.8    18
    ##  2 audi         a4          1999   1.8    21
    ##  3 audi         a4          2008   2      20
    ##  4 audi         a4          2008   2      21
    ##  5 audi         a4          1999   2.8    16
    ##  6 audi         a4          1999   2.8    18
    ##  7 audi         a4          2008   3.1    18
    ##  8 audi         a4 quattro  1999   1.8    18
    ##  9 audi         a4 quattro  1999   1.8    16
    ## 10 audi         a4 quattro  2008   2      20
    ## # ℹ 224 more rows

``` r
mpg %>% dplyr::select(manufacturer:year,cty)
```

    ## # A tibble: 234 × 5
    ##    manufacturer model      displ  year   cty
    ##    <chr>        <chr>      <dbl> <int> <int>
    ##  1 audi         a4           1.8  1999    18
    ##  2 audi         a4           1.8  1999    21
    ##  3 audi         a4           2    2008    20
    ##  4 audi         a4           2    2008    21
    ##  5 audi         a4           2.8  1999    16
    ##  6 audi         a4           2.8  1999    18
    ##  7 audi         a4           3.1  2008    18
    ##  8 audi         a4 quattro   1.8  1999    18
    ##  9 audi         a4 quattro   1.8  1999    16
    ## 10 audi         a4 quattro   2    2008    20
    ## # ℹ 224 more rows

``` r
mpg %>% dplyr::select(!(manufacturer:year))
```

    ## # A tibble: 234 × 7
    ##      cyl trans      drv     cty   hwy fl    class  
    ##    <int> <chr>      <chr> <int> <int> <chr> <chr>  
    ##  1     4 auto(l5)   f        18    29 p     compact
    ##  2     4 manual(m5) f        21    29 p     compact
    ##  3     4 manual(m6) f        20    31 p     compact
    ##  4     4 auto(av)   f        21    30 p     compact
    ##  5     6 auto(l5)   f        16    26 p     compact
    ##  6     6 manual(m5) f        18    26 p     compact
    ##  7     6 auto(av)   f        18    27 p     compact
    ##  8     4 manual(m5) 4        18    26 p     compact
    ##  9     4 auto(l5)   4        16    25 p     compact
    ## 10     4 manual(m6) 4        20    28 p     compact
    ## # ℹ 224 more rows

``` r
mpg %>% dplyr::select(c(manufacturer:year,cty))
```

    ## # A tibble: 234 × 5
    ##    manufacturer model      displ  year   cty
    ##    <chr>        <chr>      <dbl> <int> <int>
    ##  1 audi         a4           1.8  1999    18
    ##  2 audi         a4           1.8  1999    21
    ##  3 audi         a4           2    2008    20
    ##  4 audi         a4           2    2008    21
    ##  5 audi         a4           2.8  1999    16
    ##  6 audi         a4           2.8  1999    18
    ##  7 audi         a4           3.1  2008    18
    ##  8 audi         a4 quattro   1.8  1999    18
    ##  9 audi         a4 quattro   1.8  1999    16
    ## 10 audi         a4 quattro   2    2008    20
    ## # ℹ 224 more rows

``` r
mpg %>% dplyr::select(starts_with("m"))
```

    ## # A tibble: 234 × 2
    ##    manufacturer model     
    ##    <chr>        <chr>     
    ##  1 audi         a4        
    ##  2 audi         a4        
    ##  3 audi         a4        
    ##  4 audi         a4        
    ##  5 audi         a4        
    ##  6 audi         a4        
    ##  7 audi         a4        
    ##  8 audi         a4 quattro
    ##  9 audi         a4 quattro
    ## 10 audi         a4 quattro
    ## # ℹ 224 more rows

``` r
mpg %>% dplyr::select(contains("an"))
```

    ## # A tibble: 234 × 2
    ##    manufacturer trans     
    ##    <chr>        <chr>     
    ##  1 audi         auto(l5)  
    ##  2 audi         manual(m5)
    ##  3 audi         manual(m6)
    ##  4 audi         auto(av)  
    ##  5 audi         auto(l5)  
    ##  6 audi         manual(m5)
    ##  7 audi         auto(av)  
    ##  8 audi         manual(m5)
    ##  9 audi         auto(l5)  
    ## 10 audi         manual(m6)
    ## # ℹ 224 more rows

``` r
mpg %>% 
  dplyr::select(manufacturer:year,cty,hwy,everything())
```

    ## # A tibble: 234 × 11
    ##    manufacturer model      displ  year   cty   hwy   cyl trans drv   fl    class
    ##    <chr>        <chr>      <dbl> <int> <int> <int> <int> <chr> <chr> <chr> <chr>
    ##  1 audi         a4           1.8  1999    18    29     4 auto… f     p     comp…
    ##  2 audi         a4           1.8  1999    21    29     4 manu… f     p     comp…
    ##  3 audi         a4           2    2008    20    31     4 manu… f     p     comp…
    ##  4 audi         a4           2    2008    21    30     4 auto… f     p     comp…
    ##  5 audi         a4           2.8  1999    16    26     6 auto… f     p     comp…
    ##  6 audi         a4           2.8  1999    18    26     6 manu… f     p     comp…
    ##  7 audi         a4           3.1  2008    18    27     6 auto… f     p     comp…
    ##  8 audi         a4 quattro   1.8  1999    18    26     4 manu… 4     p     comp…
    ##  9 audi         a4 quattro   1.8  1999    16    25     4 auto… 4     p     comp…
    ## 10 audi         a4 quattro   2    2008    20    28     4 manu… 4     p     comp…
    ## # ℹ 224 more rows
…
